main.c:76:5:main	8	static
main.c:121:6:SystemClock_Config	192	static
main.c:170:13:MX_USART2_UART_Init	8	static
main.c:203:13:MX_DMA_Init	16	static
main.c:221:13:MX_GPIO_Init	40	static
main.c:249:1:__io_putchar	16	static
main.c:258:6:HAL_UART_RxCpltCallback	16	static
main.c:297:6:Error_Handler	4	static
